{
  "files": {
    "main.css": "/master/static/css/main.a617e044.chunk.css",
    "main.js": "/master/static/js/main.8fd5e8d7.chunk.js",
    "main.js.map": "/master/static/js/main.8fd5e8d7.chunk.js.map",
    "runtime-main.js": "/master/static/js/runtime-main.86ce6de8.js",
    "runtime-main.js.map": "/master/static/js/runtime-main.86ce6de8.js.map",
    "static/js/2.669398e0.chunk.js": "/master/static/js/2.669398e0.chunk.js",
    "static/js/2.669398e0.chunk.js.map": "/master/static/js/2.669398e0.chunk.js.map",
    "static/js/3.e4dd3302.chunk.js": "/master/static/js/3.e4dd3302.chunk.js",
    "static/js/3.e4dd3302.chunk.js.map": "/master/static/js/3.e4dd3302.chunk.js.map",
    "index.html": "/master/index.html",
    "static/css/main.a617e044.chunk.css.map": "/master/static/css/main.a617e044.chunk.css.map",
    "static/js/2.669398e0.chunk.js.LICENSE.txt": "/master/static/js/2.669398e0.chunk.js.LICENSE.txt",
    "static/media/logo.103b5fa1.svg": "/master/static/media/logo.103b5fa1.svg"
  },
  "entrypoints": [
    "static/js/runtime-main.86ce6de8.js",
    "static/js/2.669398e0.chunk.js",
    "static/css/main.a617e044.chunk.css",
    "static/js/main.8fd5e8d7.chunk.js"
  ]
}